[
    


{
    "chargePointVendor": "EV-BOX",
    "extraFilters": {
        "chargePointModel": "G4-M5320E-F6017"
    },
    "technical": {
        "maximumPower": 22080,
        "voltage": 230,
        "powerLimitUnit": "A",
        "chargePoints": [
            {
                "chargePointID": 1,
                "currentType": "AC",
                "amperage": 96,
                "numberOfConnectedPhase": 3,
                "cannotChargeInParallel": false,
                "sharePowerToAllConnectors": false,
                "excludeFromPowerLimitation": false,
                "ocppParamForPowerLimitation": "evb_MaximumStationCurrent",
                "power": 22080,
                "connectorIDs": [
                    1
                ]
            }
        ],
        "connectors": [
            {
                "connectorId": 1,
                "type": "T2",
                "power": 22080,
                "amperage": 96,
                "chargePointID": 1
            }
        ]
    },
    "capabilities": [
        {
            "supportedFirmwareVersions": [
                   "P0414B0414v.*\\..*_U6\\..*\\..*-.*"
            ],
            "supportedOcppVersions": [
                "1.6"
            ],
            "capabilities": {
                "supportStaticLimitation": true,
                "supportChargingProfiles": true,
                "supportRemoteStartStopTransaction": true,
                "supportUnlockConnector": true,
                "supportReservation": true,
                "supportCreditCard": false,
                "supportRFIDCard": true
            }
        }
    ],
    "ocppStandardParameters": [
        {
            "supportedFirmwareVersions": [
            "P0414B0414v.*\\..*_U6\\..*\\..*-.*"
            ],
            "supportedOcppVersions": [
                "1.6"
            ],
            "parameters": {
                "AllowOfflineTxForUnknownId": "true",
                "MeterValueSampleInterval": "60",
                "ClockAlignedDataInterval": "0",
                "WebSocketPingInterval": "60",
                "ConnectionTimeOut": "120",
                "MeterValuesSampledData": "Energy.Active.Import.Register,Power.Active.Import,Current.Import,Voltage",
                "UnlockConnectorOnEVSideDisconnect": "true",
                "AuthorizationCacheEnabled": "false",
                "AuthorizeRemoteTxRequests": "true",
                "LocalPreAuthorize": "false",
                "LocalAuthorizeOffline": "false",
                "StopTransactionOnInvalidId": "true",
                "ResetRetries": "2"
            }
        }
    ],
    "ocppVendorParameters": [
        {
            "supportedFirmwareVersions": [
            "P0414B0414v.*\\..*_U6\\..*\\..*-.*"
            ],
            "supportedOcppVersions": [
                "1.6"
            ],
            "parameters": {
                "evb_WebSocketPongTimeOut": "60",
                "evb_SkipAuthorize": "false",
                "evb_ResumeAfterReset": "true",
                "evb_CarReconnectCharge": "true",
                "evb_OfflineUnlockConnectorOnEVSideDisconnect": "false"
            }
        }
    ],
    "hash": "bbc978f8d9adfa4e122d3477332f8c2f222c1b764839ef3017f688f7a6fa7152",
    "hashTechnical": "1744061aa0753044fddce9cc28aace2fe6d4b8010031b7ecf43f63bb4a04bcd8",
    "hashCapabilities": "9403ad4d40a29916a19a5781370555877816d9168a5ecbc3988b2b85a74730b3",
    "hashOcppStandard": "e411add0452ea8cbcb55666272bea19677fc5e454b88efd04d0034555cd8b83f",
    "hashOcppVendor": "c9c90a46420dbed20083666ef6c6d11edc29577db48f0573362903b51a300928",
    "id": "EVBox~ELVI"
}
]

